<?xml version="1.0" encoding="UTF-8" standalone="no"?>
<svg
  xmlns:dc="http://purl.org/dc/elements/1.1/"
  xmlns:cc="http://creativecommons.org/ns#"
  xmlns:rdf="http://www.w3.org/1999/02/22-rdf-syntax-ns#"
  xmlns:svg="http://www.w3.org/2000/svg"
  xmlns="http://www.w3.org/2000/svg"
  xmlns:sodipodi="http://sodipodi.sourceforge.net/DTD/sodipodi-0.dtd"
  xmlns:inkscape="http://www.inkscape.org/namespaces/inkscape"
  xml:space="preserve"
  viewBox="0 0 47.5 47.5"
  version="1.1"
  height="24"
  width="24"
>
  <path
    d="M 11.407926,45.794968 C 9.0391883,45.591451 6.8516038,44.490929 4.8375539,42.489571 3.1559746,40.818588 2.0879714,38.966494 1.6593112,36.977972 1.4762433,36.128734 1.4763865,34.46232 1.6596055,33.552567 c 0.3693963,-1.834194 1.3099373,-3.787833 2.5796423,-5.358288 0.201401,-0.249106 2.7820623,-2.863958 5.7348028,-5.810782 5.5906574,-5.579455 5.7154034,-5.695241 6.9598934,-6.459964 1.314495,-0.807741 2.705716,-1.348646 4.126843,-1.604513 0.854745,-0.153893 2.293985,-0.143004 3.132367,0.0237 2.054056,0.408426 3.966128,1.507403 5.64383,3.243833 0.80126,0.829308 1.397441,1.650628 1.979267,2.726709 l 0.253094,0.468094 -2.060567,2.059986 -2.060566,2.059987 -0.03427,-0.22182 c -0.12867,-0.832901 -0.319828,-1.363078 -0.745126,-2.066599 -0.639902,-1.058519 -1.520903,-1.865918 -2.654515,-2.432749 -0.924898,-0.462468 -1.390192,-0.579883 -2.321216,-0.58575 -0.604212,-0.0038 -0.814918,0.01815 -1.176769,0.122636 -0.589771,0.170295 -1.230462,0.499675 -1.773414,0.911713 -0.26228,0.19904 -2.634535,2.532071 -5.745717,5.650715 -5.590166,5.60357 -5.6100271,5.625161 -6.0761091,6.605259 -0.7044165,1.481276 -0.7246408,2.916044 -0.059974,4.254719 0.3219566,0.648438 0.6846046,1.128472 1.2958158,1.715259 0.7677925,0.737112 1.5555103,1.209015 2.4001883,1.437897 0.62376,0.169019 1.618945,0.167258 2.275729,-0.004 0.633931,-0.165325 1.622276,-0.650683 2.182609,-1.071839 0.248996,-0.18715 1.509755,-1.400848 2.822624,-2.717263 l 2.372634,-2.379042 0.217523,0.137316 c 1.38412,0.873756 3.83056,1.075178 6.091843,0.501557 0.298866,-0.07581 0.550711,-0.130524 0.559656,-0.121578 0.0089,0.0089 -1.861784,1.890959 -4.157178,4.182252 -4.384377,4.376546 -4.567268,4.542826 -5.843585,5.312835 -1.346729,0.81249 -2.858348,1.377258 -4.217819,1.575853 -0.465416,0.06799 -1.588679,0.117616 -1.953218,0.0863 z"
    style="fill:#006dcc;stroke-width:0.056615"
  />
  <path
    d="m 23.75,33.259909 c -1.445941,-0.175163 -2.943688,-0.748017 -4.229508,-1.617688 -1.71363,-1.159025 -3.030142,-2.613079 -4.036765,-4.458507 l -0.242413,-0.444413 2.060217,-2.060798 2.060218,-2.060798 0.06939,0.447194 c 0.123618,0.796621 0.469502,1.549314 1.08915,2.370145 0.846783,1.121711 1.968371,1.902296 3.326854,2.315373 0.436258,0.132654 0.594616,0.151346 1.289921,0.152252 0.740651,9.68e-4 0.828238,-0.01078 1.336097,-0.179147 0.673846,-0.223398 1.367194,-0.63952 2.017434,-1.210791 C 29.382753,25.728926 38.9445,16.099948 39.24535,15.68236 40.13823,14.443021 40.555229,13.064254 40.400972,11.861416 40.177426,10.118301 38.839032,8.3705949 37.083684,7.5296236 35.399208,6.7226067 33.565912,6.9833001 31.789333,8.2824765 31.55187,8.4561283 30.312103,9.6411882 28.976506,10.971183 l -2.388213,2.378195 -0.442538,-0.22837 c -1.54922,-0.79947 -3.641216,-0.933297 -5.870165,-0.37552 -0.307305,0.0769 -0.567665,0.130891 -0.578577,0.119979 -0.04966,-0.04966 8.255251,-8.265154 8.669356,-8.5760067 1.219389,-0.9153472 2.628898,-1.6783784 3.829285,-2.0729656 3.673648,-1.2075894 7.054288,-0.3214787 10.116831,2.6517564 3.213239,3.1195363 4.222763,6.6630779 2.973693,10.4379899 -0.428888,1.296178 -1.307305,2.864131 -2.272354,4.056095 -0.26318,0.325063 -2.696425,2.798275 -5.714048,5.807903 -5.528168,5.513523 -5.657186,5.632587 -6.96237,6.425185 -1.346357,0.817603 -2.657034,1.322231 -4.124653,1.588045 -0.568135,0.1029 -1.902453,0.144316 -2.462753,0.07644 z"
    style="fill:#006dcc;stroke-width:0.056615"
  />
</svg>
